{
  "npmScope": "nevercodealone",
  "affected": {
    "defaultBase": "master"
  },
  "implicitDependencies": {
    "package.json": {
      "dependencies": "*",
      "devDependencies": "*"
    },
    ".eslintrc.json": "*"
  },
  "tasksRunnerOptions": {
    "default": {
      "runner": "@nrwl/workspace/tasks-runners/default",
      "options": {
        "cacheableOperations": ["build", "lint", "test", "e2e"]
      }
    }
  },
  "targetDependencies": {
    "build": [
      {
        "target": "build",
        "projects": "dependencies"
      }
    ]
  },
  "projects": {
    "admin-ui": {
      "tags": []
    },
    "core-module": {
      "tags": []
    },
    "data-models": {
      "tags": []
    },
    "emma": {
      "tags": []
    },
    "emma-e2e": {
      "tags": [],
      "implicitDependencies": ["emma"]
    },
    "shared-functions": {
      "tags": []
    },
    "test-emma": {
      "tags": []
    },
    "test-emma-e2e": {
      "tags": [],
      "implicitDependencies": ["test-emma"]
    }
  }
}
